﻿  main.cpp
main.obj : error LNK2019: 无法解析的外部符号 __imp__sdk_search_device，该符号在函数 _main 中被引用
a8sdk.lib : warning LNK4272: 库计算机类型“x64”与目标计算机类型“x86”冲突
E:\1_Use_Now\checkRobotProject\1_nowUsed\2_InfradCamera\Project\InfradCamera\Debug\InfradCamera.exe : fatal error LNK1120: 1 个无法解析的外部命令
