^E:\1_USE_NOW\2_C++_CODE\CHECKROBOT\DEBUG\TEST.OBJ
/OUT:"E:\1_USE_NOW\2_C++_CODE\CHECKROBOT\DEBUG\CHECKROBOT.EXE" /INCREMENTAL /NOLOGO /LIBPATH:E:\1_USE_NOW\2_C++_CODE\CHECKROBOT AIO_API.LIB KERNEL32.LIB USER32.LIB GDI32.LIB WINSPOOL.LIB COMDLG32.LIB ADVAPI32.LIB SHELL32.LIB OLE32.LIB OLEAUT32.LIB UUID.LIB ODBC32.LIB ODBCCP32.LIB /MANIFEST /MANIFESTUAC:"level='asInvoker' uiAccess='false'" /manifest:embed /DEBUG:FASTLINK /PDB:"E:\1_USE_NOW\2_C++_CODE\CHECKROBOT\DEBUG\CHECKROBOT.PDB" /SUBSYSTEM:CONSOLE /TLBID:1 /DYNAMICBASE /NXCOMPAT /IMPLIB:"E:\1_USE_NOW\2_C++_CODE\CHECKROBOT\DEBUG\CHECKROBOT.LIB" /MACHINE:X86 DEBUG\TEST.OBJ
^E:\1_USE_NOW\CHECKROBOTPROJECT\CHECKROBOT_C\DEBUG\TEST.OBJ
/OUT:"E:\1_USE_NOW\CHECKROBOTPROJECT\CHECKROBOT_C\DEBUG\CHECKROBOT.EXE" /INCREMENTAL /NOLOGO /LIBPATH:E:\1_USE_NOW\2_C++_CODE\CHECKROBOT AIO_API.LIB KERNEL32.LIB USER32.LIB GDI32.LIB WINSPOOL.LIB COMDLG32.LIB ADVAPI32.LIB SHELL32.LIB OLE32.LIB OLEAUT32.LIB UUID.LIB ODBC32.LIB ODBCCP32.LIB /MANIFEST /MANIFESTUAC:"level='asInvoker' uiAccess='false'" /manifest:embed /DEBUG:FASTLINK /PDB:"E:\1_USE_NOW\CHECKROBOTPROJECT\CHECKROBOT_C\DEBUG\CHECKROBOT.PDB" /SUBSYSTEM:CONSOLE /TLBID:1 /DYNAMICBASE /NXCOMPAT /IMPLIB:"E:\1_USE_NOW\CHECKROBOTPROJECT\CHECKROBOT_C\DEBUG\CHECKROBOT.LIB" /MACHINE:X86 DEBUG\TEST.OBJ
^E:\1_USE_NOW\CHECKROBOTPROJECT\CHECKROBOT_C\DEBUG\SENDDATA.OBJ|E:\1_USE_NOW\CHECKROBOTPROJECT\CHECKROBOT_C\DEBUG\TEST.OBJ
/OUT:"E:\1_USE_NOW\CHECKROBOTPROJECT\CHECKROBOT_C\DEBUG\CHECKROBOT.EXE" /INCREMENTAL /NOLOGO /LIBPATH:E:\1_USE_NOW\2_C++_CODE\CHECKROBOT AIO_API.LIB KERNEL32.LIB USER32.LIB GDI32.LIB WINSPOOL.LIB COMDLG32.LIB ADVAPI32.LIB SHELL32.LIB OLE32.LIB OLEAUT32.LIB UUID.LIB ODBC32.LIB ODBCCP32.LIB /MANIFEST /MANIFESTUAC:"level='asInvoker' uiAccess='false'" /manifest:embed /DEBUG:FASTLINK /PDB:"E:\1_USE_NOW\CHECKROBOTPROJECT\CHECKROBOT_C\DEBUG\CHECKROBOT.PDB" /SUBSYSTEM:CONSOLE /TLBID:1 /DYNAMICBASE /NXCOMPAT /IMPLIB:"E:\1_USE_NOW\CHECKROBOTPROJECT\CHECKROBOT_C\DEBUG\CHECKROBOT.LIB" /MACHINE:X86 DEBUG\SENDDATA.OBJ
DEBUG\TEST.OBJ
^E:\1_USE_NOW\CHECKROBOTPROJECT\1_NOWUSED\CHECKROBOT_C\DEBUG\SENDDATA.OBJ|E:\1_USE_NOW\CHECKROBOTPROJECT\1_NOWUSED\CHECKROBOT_C\DEBUG\TEST.OBJ
/OUT:"E:\1_USE_NOW\CHECKROBOTPROJECT\1_NOWUSED\CHECKROBOT_C\DEBUG\CHECKROBOT.EXE" /INCREMENTAL /NOLOGO /LIBPATH:E:\1_USE_NOW\2_C++_CODE\CHECKROBOT AIO_API.LIB KERNEL32.LIB USER32.LIB GDI32.LIB WINSPOOL.LIB COMDLG32.LIB ADVAPI32.LIB SHELL32.LIB OLE32.LIB OLEAUT32.LIB UUID.LIB ODBC32.LIB ODBCCP32.LIB /MANIFEST /MANIFESTUAC:"level='asInvoker' uiAccess='false'" /manifest:embed /DEBUG:FASTLINK /PDB:"E:\1_USE_NOW\CHECKROBOTPROJECT\1_NOWUSED\CHECKROBOT_C\DEBUG\CHECKROBOT.PDB" /SUBSYSTEM:CONSOLE /TLBID:1 /DYNAMICBASE /NXCOMPAT /IMPLIB:"E:\1_USE_NOW\CHECKROBOTPROJECT\1_NOWUSED\CHECKROBOT_C\DEBUG\CHECKROBOT.LIB" /MACHINE:X86 DEBUG\SENDDATA.OBJ
DEBUG\TEST.OBJ
