^E:\1_USE_NOW\CHECKROBOTPROJECT\1_NOWUSED\2_INFRADCAMERA\PROJECT\INFRADCAMERA\MAIN.CPP
E:\1_USE_NOW\CHECKROBOTPROJECT\1_NOWUSED\2_INFRADCAMERA\PROJECT\INFRADCAMERA\DEBUG\VC142.PDB
E:\1_USE_NOW\CHECKROBOTPROJECT\1_NOWUSED\2_INFRADCAMERA\PROJECT\INFRADCAMERA\DEBUG\VC142.IDB
E:\1_USE_NOW\CHECKROBOTPROJECT\1_NOWUSED\2_INFRADCAMERA\PROJECT\INFRADCAMERA\DEBUG\MAIN.OBJ
